<svg width="16" height="18" viewBox="0 0 16 18" fill="none" xmlns="http://www.w3.org/2000/svg">
<path fill-rule="evenodd" clip-rule="evenodd" d="M16 13.5004L16 4.49956L8 -3.49691e-07L7.56992e-07 4.49956L3.63551e-07 13.5004L8 18L16 13.5004Z" fill="white"/>
</svg>
