<svg width="28" height="28" viewBox="0 0 28 28" fill="none" xmlns="http://www.w3.org/2000/svg">
<path fill-rule="evenodd" clip-rule="evenodd" d="M15.44 20.2H4.56L10 8.8L15.44 20.2ZM6.94 18.7H13.06L10 12.29L6.94 18.7Z" fill="#B4D678"/>
<path fill-rule="evenodd" clip-rule="evenodd" d="M12.56 7.8L18 19.2L23.44 7.8H12.56ZM18 15.71L14.94 9.3H21.06L18 15.71Z" fill="#B4D678"/>
<path fill-rule="evenodd" clip-rule="evenodd" d="M28 0H0V28H28V0ZM26.5 1.5V26.5H1.5V1.5H26.5Z" fill="#B4D678"/>
</svg>
