<?xml version="1.0" encoding="UTF-8"?>
<svg width="316" height="95" clip-rule="evenodd" fill-rule="evenodd" image-rendering="optimizeQuality" shape-rendering="geometricPrecision" text-rendering="geometricPrecision" version="1.1" viewBox="0 0 316 95" xml:space="preserve" xmlns="http://www.w3.org/2000/svg"><style type="text/css">
   <![CDATA[
    .fil0 {fill:#78765F}
    .fil1 {fill:#D8972D;fill-rule:nonzero}
    .fil2 {fill:#B4D678;fill-rule:nonzero}
   ]]></style><path d="m0 95h316l-32.4-94.8-251-.207z" fill-opacity=".8" stroke="#000" stroke-dashoffset="5.2" stroke-linejoin="round" stroke-width=".0599"/><path class="fil0" d="m81.5 52.8h16.2l.0283 12.5h9.35l.028-11.4h9.91l.028 11.5h9.63v-.0028h8.19v-7.57h3.47l5.45 7.57h10.3l-1.41-1.81c1.5.791 3.11 1.26 4.83 1.76 2.06.587 4.69.757 6.97.757 4.01 0 6.92-1.28 9.04-2.83 2.15-1.57 2.96-3.21 3.25-5.61.593 2.04 1.3 3.44 2.8 4.84 2.29 2.13 5.54 3.37 9.74 3.32 3.7 0 7.14-1.51 9.4-3.64 1.24-1.17 2.2-2.83 2.77-4.66v7.86h16.9v-12.6h16.2l-3.9 8.63 3.9 8.35h-153l3.9-8.35zm120 .0084v-.0084z"/><polygon class="fil1" points="119 52 119 63.4 124 63.4 124 36.8 119 36.8 119 47.8 105 47.8 105 36.8 99.7 36.8 99.7 63.4 105 63.4 105 52"/><path class="fil2" d="m189 60.3c-.961 0-1.89-.181-2.74-.531-.819-.35-1.58-.872-2.2-1.55-.593-.644-1.07-1.42-1.38-2.32-.31-.85-.48-1.81-.48-2.86s.17-2 .48-2.86c.311-.895.791-1.67 1.38-2.32.621-.672 1.38-1.19 2.2-1.54.847-.35 1.78-.534 2.74-.534.988 0 1.89.184 2.74.531.818.35 1.58.872 2.2 1.54.593.644 1.04 1.42 1.36 2.32.311.853.48 1.81.48 2.86s-.169 2.01-.48 2.86c-.31.898-.762 1.68-1.36 2.32-.621.672-1.38 1.19-2.2 1.54-.848.347-1.75.528-2.74.528zm0 3.54c3.36 0 6.27-1.13 8.3-3.05 2.03-1.9 3.22-4.6 3.22-7.75s-1.19-5.84-3.22-7.75c-2.03-1.92-4.94-3.05-8.3-3.05s-6.27 1.13-8.3 3.05c-2.03 1.9-3.25 4.59-3.25 7.74s1.22 5.84 3.25 7.74c2.03 1.92 4.94 3.05 8.3 3.05z"/><polygon class="fil2" points="204 63.7 208 63.7 208 43.3 204 43.3"/><path class="fil2" d="m209 39.4c-.621.579-1.5.92-2.51.92-1.02 0-1.89-.336-2.51-.892-.649-.59-1.04-1.41-1.04-2.34 0-.926.396-1.75 1.04-2.34.621-.553 1.5-.892 2.51-.892.988 0 1.86.322 2.48.858.65.568 1.04 1.37 1.04 2.28 0 .966-.395 1.8-1.02 2.4z"/><polygon class="fil2" points="212 63.6 216 63.6 216 35.1 212 35.1"/><path class="fil1" d="m150 63.6-6.01-8.79.932-.404c1.69-.728 3.05-1.81 3.95-3.2.875-1.36 1.36-3.03 1.36-4.96 0-2.91-1.07-5.26-2.99-6.87-1.98-1.65-4.88-2.56-8.44-2.56h-11.4v26.8h4.88v-7.88h7.28l5.48 7.88zm-4.74-17.4c0 1.82-.621 3.28-1.86 4.3-1.13.946-2.82 1.46-4.97 1.46h-6.18v-11.5h6.18c2.17 0 3.84.508 5 1.45 1.21 1.01 1.84 2.47 1.84 4.31z"/><path class="fil2" d="m164 63.9c3.61 0 6.35-.839 8.19-2.19 1.98-1.45 2.96-3.51 2.96-5.74 0-5.42-5.28-6.62-9.66-7.62-3.67-.839-6.78-1.55-6.78-4.38 0-1.24.536-2.35 1.81-3.12.988-.593 2.43-.957 4.38-.957 1.36 0 2.77.198 4.18.599 1.07.308 2.17.737 3.25 1.29l1.41-3.45c-1.07-.593-2.32-1.06-3.62-1.39-1.67-.418-3.42-.632-5.17-.632-3.61 0-6.32.836-8.16 2.19-1.98 1.45-2.94 3.52-2.94 5.79 0 5.49 5.28 6.71 9.66 7.73 3.67.85 6.8 1.58 6.8 4.44 0 1.22-.565 2.26-1.86 2.97-.988.556-2.46.887-4.43.887-1.75 0-3.53-.305-5.2-.827-1.36-.435-2.66-1.02-3.78-1.71l-1.55 3.41c1.16.751 2.63 1.39 4.26 1.86 1.92.545 4.1.861 6.24.861z"/></svg>
