<svg
    width='32'
    height='32'
    viewBox='0 0 32 32'
    stroke='#777'
    stroke-width='2'
    stroke-linecap='square'
    fill='transparent'
    xmlns='http://www.w3.org/2000/svg'>

    <path
        d='
            M2 4 L28 28
            M2 28 L28 4
        '
        />

</svg>
