<svg width="32" height="32" viewBox="0 0 32 32" fill="none" xmlns="http://www.w3.org/2000/svg">
<rect width="32" height="32" fill="transparent"/>
<path d="M23 15.2221V16.7777L9 16.7777L9 15.2221L23 15.2221Z" fill="white"/>
</svg>
