<svg width="32" height="32" viewBox="0 0 32 32" fill="none" xmlns="http://www.w3.org/2000/svg">
<rect width="32" height="32" fill="transparent"/>
<path fill-rule="evenodd" clip-rule="evenodd" d="M16.7778 9H15.2223V15.2221H9V16.7777L15.2223 16.7777V23H16.7778V16.7777L23 16.7777V15.2221H16.7778V9Z" fill="white"/>
</svg>
