<svg width="159" height="32" viewBox="0 0 159 32" fill="none" xmlns="http://www.w3.org/2000/svg">
<path d="M65.2749 11.7238C65.2749 11.7238 65.6805 11.5674 66.3995 11.5674C67.1817 11.5674 67.5249 11.7238 67.5249 11.7238V23.204C67.5249 25.3624 68.6504 26.4574 70.9303 26.4574C72.586 26.4574 74.3058 25.424 75.2741 23.61V11.7238C75.2741 11.7238 75.649 11.5674 76.3996 11.5674C77.18 11.5674 77.525 11.7238 77.525 11.7238V27.8644C77.525 27.8644 77.1809 28.0209 76.3996 28.0209C75.6498 28.0209 75.2741 27.8644 75.2741 27.8644V25.8941C74.0548 27.4284 72.2436 28.3354 70.0875 28.3354C67.0246 28.3354 65.2757 26.4582 65.2757 23.6416V11.7238H65.2749Z" fill="white"/>
<path d="M85.2094 27.8656C85.2094 27.8656 84.8345 28.0221 84.0839 28.0221C83.2719 28.0221 82.9585 27.8656 82.9585 27.8656V4.71893C82.9585 4.71893 83.2719 4.5625 84.0839 4.5625C84.8337 4.5625 85.2094 4.71893 85.2094 4.71893V27.8656Z" fill="white"/>
<path d="M93.5846 22.328C93.5846 25.3309 94.4274 26.4576 96.896 26.4576C97.6765 26.4576 98.4271 26.3003 98.4271 26.3003C98.4271 26.3003 98.6158 26.6756 98.6158 27.2397C98.6158 27.7714 98.4911 28.0851 98.4911 28.0851C98.1777 28.1775 97.3349 28.3355 96.3026 28.3355C92.6154 28.3355 91.3345 26.2387 91.3345 22.4236V13.3507H88.8975C88.8975 13.3507 88.7412 13.037 88.7412 12.4745C88.7412 11.8504 88.8975 11.5675 88.8975 11.5675H91.3345V8.5962C91.9288 8.18931 92.7717 8.03288 93.5846 8.09529V11.5667H98.0522C98.0522 11.5667 98.2085 11.8804 98.2085 12.4429C98.2085 13.007 98.0522 13.3499 98.0522 13.3499H93.5846V22.328Z" fill="white"/>
<path d="M104.366 8.00284C104.366 8.00284 103.93 8.15927 103.085 8.15927C102.211 8.15927 101.804 8.00284 101.804 8.00284V5.71795C101.804 5.71795 102.211 5.56152 103.085 5.56152C103.93 5.56152 104.366 5.71795 104.366 5.71795V8.00284ZM104.21 27.8653C104.21 27.8653 103.836 28.0218 103.085 28.0218C102.273 28.0218 101.96 27.8653 101.96 27.8653V11.7255C101.96 11.7255 102.273 11.5683 103.085 11.5683C103.835 11.5683 104.21 11.7255 104.21 11.7255V27.8653Z" fill="white"/>
<path d="M117.217 5.1875C122.531 5.1875 125.81 8.65976 125.81 16.7609C125.81 24.862 122.561 28.335 117.217 28.335C111.874 28.335 108.624 24.862 108.624 16.7609C108.624 8.69054 111.906 5.1875 117.217 5.1875ZM117.217 7.12624C113.468 7.12624 111.063 9.53593 111.063 16.7609C111.063 23.9866 113.469 26.3946 117.217 26.3946C120.967 26.3946 123.373 23.9858 123.373 16.7609C123.373 9.53593 120.967 7.12624 117.217 7.12624Z" fill="white"/>
<path d="M141.937 27.8658C141.937 27.8658 141.529 28.0222 140.811 28.0222C140.031 28.0222 139.685 27.8658 139.685 27.8658V16.3856C139.685 14.2272 138.561 13.1339 136.311 13.1339C134.594 13.1339 132.874 14.1964 131.936 15.9796V27.8658C131.936 27.8658 131.561 28.0222 130.812 28.0222C130.03 28.0222 129.687 27.8658 129.687 27.8658V11.726C129.687 11.726 130.029 11.5687 130.812 11.5687C131.56 11.5687 131.936 11.726 131.936 11.726V13.6955C133.155 12.1628 134.935 11.2559 137.122 11.2559C140.186 11.2559 141.936 13.133 141.936 15.9479V27.8658H141.937Z" fill="white"/>
<path d="M148.066 20.5151C148.286 24.7986 149.878 26.3329 152.909 26.3329C155.285 26.3329 156.722 25.3012 156.722 25.3012C157.16 25.644 157.503 26.3005 157.534 26.957C157.534 26.957 155.817 28.3349 152.473 28.3349C147.974 28.3349 145.724 25.3627 145.724 19.7005C145.724 13.7894 148.442 11.2549 152.442 11.2549C156.221 11.2549 158.315 13.5073 158.315 17.2916C158.315 19.232 157.973 20.5142 157.973 20.5142H148.066V20.5151ZM152.442 13.1013C149.942 13.1013 148.255 14.7588 148.066 18.8251H156.003C156.036 18.6054 156.097 18.0122 156.097 17.042C156.097 14.9144 155.128 13.1013 152.442 13.1013Z" fill="white"/>
<path d="M51.2371 16.8547C50.6128 17.9813 50.2696 18.7934 50.1748 19.1687H50.051C49.839 18.5022 49.2447 17.2199 48.4991 15.7771C48.475 15.7297 48.4509 15.6831 48.426 15.6357L46.3746 11.8813L43.1055 5.90287C43.0291 5.76308 42.8994 5.6624 42.7448 5.62912C42.4863 5.5742 42.0524 5.50098 41.582 5.50098C41.1838 5.50098 40.8572 5.53925 40.6186 5.58252C40.3584 5.62912 40.1772 5.85877 40.1772 6.12254V27.8331C40.1772 27.8331 40.5513 28.022 41.2387 28.022C41.9568 28.022 42.3009 27.8331 42.3009 27.8331V14.4158C42.3009 11.6625 42.2394 9.22286 42.0507 8.31589H42.1438C42.3633 9.12883 43.3009 11.1308 44.3008 12.9755C44.9873 14.2611 45.6806 15.53 46.3738 16.7997C47.0836 18.1003 47.7909 19.4016 48.4983 20.7014C48.7651 21.1906 49.0352 21.6799 49.3004 22.1708C49.3004 22.1708 49.5813 22.2973 50.0185 22.2973C50.4873 22.2973 50.799 22.1708 50.799 22.1708L54.3299 15.9169C54.4903 15.6323 54.3731 15.2737 54.0747 15.1398L52.5778 14.4733C52.4772 14.658 51.3601 16.6325 51.2371 16.8547Z" fill="white"/>
<path d="M58.8606 5.5C58.2364 5.5 57.7044 5.59319 57.3611 5.68722C56.2174 7.78239 54.7279 10.5407 53.8452 12.1857C53.7172 12.4262 53.8203 12.7233 54.0688 12.8339L55.6771 13.5487L56.0188 12.9113C57.0187 11.0042 57.8939 9.12785 58.1433 8.31492H58.2372C58.1125 9.4091 58.0809 11.8812 58.0809 14.5688V16.5625V21.1356V27.8329C58.0809 27.8329 58.4874 28.0202 59.2371 28.0202C59.9877 28.0202 60.3942 27.8329 60.3942 27.8329V17.0326V12.348V5.68722C60.3925 5.68722 59.7982 5.5 58.8606 5.5Z" fill="#B4D678"/>
<path d="M14.2422 4.28226C14.8515 4.59678 15.5247 4.94459 16.2545 5.32152C16.4698 5.43219 16.6851 5.54452 16.9012 5.65519C17.0541 5.72009 17.1805 5.71343 17.3401 5.63355C17.3642 5.62107 20.1004 4.06259 20.2201 3.98687C20.221 3.98604 20.4279 3.89534 20.1254 3.73891C19.8203 3.58165 19.5843 3.4585 19.2776 3.30207C18.9276 3.12151 18.5785 2.94095 18.2286 2.76039C18.1987 2.74708 18.1056 2.70797 17.9344 2.73709C17.8995 2.74375 15.6137 3.36282 14.5381 3.78967C14.1907 3.92696 14.0535 4.13914 14.2422 4.28226Z" fill="white"/>
<path d="M8.55117 8.11214C9.3674 8.534 10.3299 9.03075 11.4163 9.59157C11.5759 9.65564 11.733 9.63651 11.8834 9.53666L15.5548 6.80412C15.741 6.64353 15.9454 6.443 15.5348 6.23082C15.5049 6.21584 15.475 6.20003 15.4459 6.18422C14.4958 5.69413 13.6397 5.25229 12.8908 4.86538C12.8493 4.84957 12.7678 4.78134 12.6307 4.85123C12.5708 4.88202 7.78315 7.47477 8.55117 8.11214Z" fill="#B4D678"/>
<path d="M4.28186 13.4872C4.93601 13.825 5.7406 14.2394 6.67486 14.7237C6.88681 14.8036 6.88681 14.8036 7.70553 13.7061C8.17848 13.0753 8.17848 13.0753 9.7993 11.3188C9.95058 11.1549 10.2473 10.7979 9.82257 10.5916C8.82764 10.0782 7.95655 9.62805 7.22511 9.25029C7.073 9.17207 6.85273 9.47079 6.80369 9.52071C6.19526 10.1548 5.01248 11.5685 4.46722 12.5328C4.19542 13.0163 4.04497 13.3641 4.28186 13.4872Z" fill="#B4D678"/>
<path d="M5.06854 20.0105C5.08682 19.681 5.11675 19.4339 5.16495 19.156C5.30293 18.3755 5.37026 18.1925 5.80913 16.9959C5.83323 16.9294 5.99947 16.5732 5.67281 16.3685C4.88817 15.8976 4.21823 15.494 3.68045 15.1712C3.55494 15.0946 3.53998 15.2444 3.49759 15.3775C3.28646 16.0524 3.04043 18.0818 3.07867 18.6343C3.09529 18.8681 3.08864 19.0312 3.23161 19.1152C3.65801 19.3723 4.19828 19.6985 4.83996 20.0838C5.00038 20.1794 5.06106 20.1212 5.06854 20.0105Z" fill="#8BA27E"/>
<path d="M5.5072 24.5615C5.45982 24.1521 5.38086 24.0123 5.30771 23.3749C5.25701 22.9414 5.22459 22.5004 5.1448 22.0744C5.10906 21.8855 5.01679 21.8206 4.98604 21.7998C4.45075 21.5236 3.99942 21.2914 3.64616 21.1075C3.63951 21.1059 3.63037 21.1025 3.62455 21.1025C3.3353 21.125 4.29615 24.088 4.54218 24.2162C4.7824 24.3393 5.08495 24.4957 5.4407 24.678C5.46231 24.6863 5.52382 24.7063 5.5072 24.5615Z" fill="white"/>
<path d="M21.6198 4.70451C21.5309 4.74944 19.1928 6.32955 19.1761 6.34453C19.1728 6.34786 18.724 6.59748 19.2426 6.86541C20.181 7.35051 21.1186 7.83478 22.0246 8.30324C22.269 8.40392 22.3031 8.35899 22.8882 7.61345C23.7203 6.55338 23.9214 5.88689 23.9214 5.88273C23.9222 5.88106 23.9763 5.71215 23.805 5.62395C23.549 5.49082 22.6455 5.02236 22.1393 4.74029C21.8443 4.57553 21.6689 4.68038 21.6198 4.70451Z" fill="#B4D678"/>
<path d="M17.4273 12.6621C17.567 12.7203 17.739 12.7528 17.9576 12.5614C17.9826 12.5389 20.6058 9.96199 20.9308 9.57175C20.9333 9.56842 21.2616 9.21063 20.7853 8.93771C19.7929 8.42432 18.8138 7.91841 17.7989 7.39504C17.6335 7.30933 17.4573 7.3293 17.1929 7.50238C16.636 7.86683 14.3021 9.55178 13.7335 10.0186C13.4825 10.2241 13.4476 10.5636 13.7934 10.7857C14.9953 11.4065 16.2196 12.0397 17.4273 12.6621Z" fill="#8BA27E"/>
<path d="M10.2279 13.3148C9.71667 13.8416 9.25121 14.4165 8.82397 15.0198C8.60953 15.3218 8.40921 15.5947 8.58459 15.6913C9.53714 16.2246 11.0798 17.0484 12.2385 17.6466C12.3358 17.6957 12.5818 17.8189 12.6898 17.7848C12.7696 17.7606 12.9051 17.6433 12.9625 17.5801C13.9582 16.4925 14.8817 15.4558 15.8775 14.3708C15.9647 14.2734 16.0578 14.1644 16.0595 14.0363C16.062 13.8607 15.8957 13.7517 15.7478 13.6751C14.6157 13.0852 13.4928 12.4761 12.3491 11.907C12.0822 11.773 11.7182 11.778 10.2279 13.3148Z" fill="#B4D678"/>
<path d="M6.57534 19.5178C6.28858 20.4364 6.2545 20.7152 6.5637 20.9232C7.01254 21.1537 7.49546 21.4025 8.00831 21.6687C8.39232 21.8668 8.78131 22.0681 9.17114 22.2687C9.42549 22.371 9.57926 22.163 9.67318 21.9907C9.78955 21.7761 10.0007 21.3034 11.1111 19.6118C11.151 19.5519 11.4561 19.2465 10.969 18.9961C10.3631 18.6824 8.26598 17.5999 7.84789 17.3835C7.7257 17.3203 7.55863 17.3344 7.40154 17.5782C7.17545 17.9294 6.58115 19.4962 6.57534 19.5178Z" fill="#B4D678"/>
<path d="M7.01198 25.4976C7.2497 25.6208 7.50321 25.7514 7.77002 25.8895C8.03102 26.0243 8.29617 26.1608 8.56132 26.2973C8.6303 26.333 8.74584 26.3638 8.76911 26.2465C8.77992 26.1899 8.77992 26.1866 8.78491 26.0576C8.78657 26.0052 8.7982 25.7281 8.84725 25.3828C8.9179 24.8935 9.03094 24.4983 9.06419 24.3885C9.08081 24.3336 9.11073 24.262 9.11489 24.2029C9.12403 24.0615 9.05754 23.9425 8.91706 23.8535C8.57711 23.6795 8.23715 23.5073 7.90468 23.3317C7.43505 23.0813 6.63296 22.6652 6.46173 22.5862C6.33456 22.528 6.30713 22.7892 6.36448 23.2294C6.41685 23.6454 6.56646 24.45 6.74517 24.9859C6.82995 25.2438 6.90475 25.4311 7.01198 25.4976Z" fill="#B4D678"/>
<path d="M26.6943 5.8434C26.755 5.87418 26.7317 5.8434 26.7176 5.80762L26.6943 5.8434Z" fill="white"/>
<path d="M26.2904 6.89979C25.9413 6.72006 25.5922 6.53867 25.2439 6.35977C25.2223 6.35062 25.1957 6.34063 25.1691 6.34646C25.1109 6.3606 25.096 6.42467 25.0827 6.48042C25.0611 6.57528 24.9937 6.80743 24.8807 7.07536C24.6114 7.71523 24.1152 8.34428 23.8168 8.8352C23.712 9.00744 23.7228 9.13641 24.0728 9.3436C24.9555 9.79875 25.79 10.2298 26.5431 10.6192C26.6403 10.6633 26.8423 10.7556 27.0542 9.33694C27.2155 8.25358 27.0152 7.47808 27.0127 7.47059C27.0127 7.46893 26.9927 7.26258 26.8273 7.17687C26.6486 7.08534 26.4691 6.99215 26.2904 6.89979Z" fill="#B4D678"/>
<path d="M25.9813 11.6239C25.0695 11.153 24.3555 10.7852 23.3074 10.2427C22.9126 10.038 22.6324 10.1903 22.4596 10.3409C21.5693 11.1222 19.6726 13.1524 19.6726 13.1524C19.4681 13.3521 19.2844 13.5993 19.8629 13.898C21.1562 14.5645 22.4072 15.2093 23.57 15.8109C23.8634 15.9316 23.9208 15.855 24.368 15.2651C25.584 13.6575 26.1941 12.4344 26.2257 12.3071C26.2273 12.3037 26.4376 11.8594 25.9813 11.6239Z" fill="#B4D678"/>
<path d="M19.4936 20.9325C19.8427 20.6205 22.1791 18.1551 22.4526 17.843C22.7136 17.546 22.8075 17.2839 22.3113 17.0276C21.0412 16.3728 19.6847 15.6705 18.2917 14.9524C18.1861 14.8975 17.9085 14.8417 17.5752 15.1022C17.2344 15.3684 14.5771 18.0635 14.5455 18.091C14.2305 18.3622 14.1565 18.5919 14.725 18.8856C16.1489 19.6203 17.5511 20.3451 18.8801 21.0307C19.0397 21.1131 19.2542 21.1455 19.4936 20.9325Z" fill="#B4D678"/>
<path d="M14.967 24.9878L17.2453 22.787C17.296 22.7337 17.5778 22.42 17.1215 22.1821C15.9046 21.553 14.6254 20.8932 13.3313 20.225C13.2448 20.1876 13.1567 20.1485 13.0237 20.1634C12.5632 20.2167 11.1818 22.4791 11.1693 22.5024C10.9482 22.891 10.8385 23.0857 11.2275 23.3295C12.3305 23.9003 13.4268 24.4669 14.4758 25.0086C14.7784 25.1343 14.8698 25.0669 14.967 24.9878Z" fill="white"/>
<path d="M10.1203 27.0764C10.6822 27.3676 11.2383 27.653 11.7686 27.9276C11.8941 27.9925 11.988 27.9892 12.0653 27.9293C12.2864 27.7554 13.4609 26.4457 13.47 26.4324C13.4709 26.4307 13.6238 26.2635 13.357 26.127C12.5325 25.701 11.6697 25.2558 10.8019 24.8073C10.7346 24.7716 10.6881 24.7599 10.6182 24.7632C10.4927 24.7716 10.3705 24.784 10.1179 25.9365C9.90008 26.9391 9.99151 27.009 10.1203 27.0764Z" fill="#8BA27E"/>
<path d="M25.5883 16.8516C26.3705 17.256 27.1534 17.6596 27.9364 18.064C27.9738 18.0814 28.0129 18.1014 28.0561 18.0981C28.1193 18.0914 28.1758 18.0365 28.2207 17.9808C28.3769 17.7935 28.4858 17.5697 28.5839 17.3434C28.7784 16.8932 28.9305 16.4264 29.0826 15.9605C29.2954 15.3056 29.5107 14.6441 29.6129 13.971C29.6337 13.8312 29.6487 13.6814 29.5938 13.5649C29.5389 13.4484 29.4242 13.386 29.3162 13.3311C28.7784 13.0532 28.2922 12.8127 27.7569 12.5298C27.5973 12.445 27.3587 12.5756 27.2881 12.7171C27.2474 12.8003 27.0487 13.2612 26.9315 13.5067C26.6206 14.1599 25.5019 15.9721 25.3489 16.2567C25.2043 16.5221 25.4154 16.7626 25.5883 16.8516Z" fill="#B4D678"/>
<path d="M21.0533 21.5638C21.0508 21.5671 20.7175 21.9507 21.1788 22.1895C22.3259 22.7811 23.3831 23.327 24.3058 23.8046C24.4354 23.8711 24.6823 23.7671 24.92 23.515C25.7753 22.6064 27.3687 20.4696 27.3862 20.4422C27.4884 20.2716 27.8126 19.9304 27.3463 19.6916C26.5126 19.2606 24.7662 18.2987 24.4529 18.1723C24.2318 18.0832 23.9974 18.3037 23.9409 18.367C23.4712 18.8937 23.0673 19.3879 22.5943 19.9096C22.0881 20.468 21.513 20.9639 21.0533 21.5638Z" fill="white"/>
<path d="M22.7079 25.0341C21.7354 24.5315 20.7529 24.0248 19.561 23.4091C19.349 23.3001 19.0706 23.3442 18.8537 23.5147C18.7298 23.6121 16.4523 25.5317 16.4274 25.5492C16.311 25.6365 16.1897 25.8271 16.5139 25.9943C17.5495 26.5294 18.5162 27.0294 19.3731 27.4713C19.556 27.5653 19.7389 27.5021 20.1013 27.2974C21.0605 26.7565 22.6721 25.5783 22.6913 25.5633C22.727 25.5334 23.0919 25.2521 22.7079 25.0341Z" fill="#8BA27E"/>
<path d="M17.9513 28.4827C17.1608 28.075 16.2706 27.6149 15.3181 27.1223C15.2416 27.0915 15.1635 27.0574 15.0321 27.0657C14.9158 27.0724 14.7844 27.0807 13.1379 28.5219C13.1229 28.5335 13.0165 28.5901 13.1894 28.6783C13.7995 28.9936 14.368 29.2874 14.8692 29.5461C15.0114 29.6194 15.1261 29.6352 15.2748 29.6011C15.3954 29.5744 18.5963 28.8156 17.9513 28.4827Z" fill="#B4D678"/>
<path d="M29.098 8.5217C29.694 9.90378 29.8328 12.2427 29.5859 12.1845C29.2044 11.9865 28.7107 11.731 28.1338 11.434C27.9061 11.315 27.8795 11.1619 27.9136 10.9988C27.9801 10.6901 27.9593 10.7933 28.01 10.5852C28.1006 10.2116 28.2452 9.45612 28.1837 8.60574C28.1662 8.35528 28.133 8.13229 28.0889 7.87018C28.0864 7.85188 28.0623 7.78697 28.1014 7.80778C28.1779 7.84688 28.7622 8.14893 28.9426 8.24129C29.0232 8.28289 29.0963 8.5192 29.098 8.5217Z" fill="white"/>
<path d="M30.5203 21.2806C30.3748 21.2057 30.1811 21.1066 29.9384 20.9818C29.8287 20.9236 29.7107 20.8629 29.5835 20.7979C29.3483 20.6765 29.0848 20.5392 28.7955 20.3902C28.7706 20.3819 28.7332 20.3711 28.7074 20.3711C28.6326 20.3744 28.5462 20.4293 28.4797 20.5159C28.2012 20.8753 27.9901 21.2781 27.7233 21.6433C27.0218 22.6052 26.3394 23.3349 25.9919 23.6811C25.6595 24.0139 25.3187 24.3151 25.7376 24.5306C26.1432 24.7403 26.5123 24.93 26.8406 25.1014C27.1315 25.2512 27.39 25.386 27.6136 25.5C27.6651 25.5275 27.8505 25.6215 28.0117 25.7047C28.1555 25.7779 28.3326 25.7421 28.4331 25.6157C29.3591 24.4424 30.1063 23.1278 30.6848 21.7216C30.7538 21.5535 30.6566 21.3504 30.5203 21.2806Z" fill="#B4D678"/>
<path d="M26.4292 26.965C25.8158 26.6397 25.1991 26.3185 24.5665 26.0339C24.3238 25.9233 24.1667 26.0032 24.0977 26.0597C24.0105 26.133 23.4752 26.5731 23.2873 26.7129C23.2092 26.7712 23.1311 26.8302 23.0521 26.8885C22.6864 27.1564 22.3082 27.4135 21.9192 27.6557C21.8452 27.7014 21.7704 27.7464 21.6964 27.7921C21.4911 27.9153 21.4221 27.9402 21.1628 28.1191C21.0697 28.184 21.078 28.2423 21.0764 28.2706C21.0722 28.3255 21.1379 28.3679 21.1944 28.397C21.9317 28.779 22.6731 29.1509 23.4045 29.5445C23.5541 29.6243 23.668 29.6468 24.0645 29.3789C25.2971 28.6333 25.9471 28.1815 26.9138 27.2679C26.8797 27.2213 26.5514 27.0299 26.4292 26.965Z" fill="#B4D678"/>
<path d="M3.34763 23.5147C2.74751 22.2001 2.73338 22.2067 2.57712 21.6833C2.46907 21.3189 2.41005 21.0302 2.37514 20.8579C2.35104 20.7423 2.34189 20.5292 2.21638 20.4693C2.08007 20.3978 1.62042 20.1332 1.35943 19.9851C1.27631 19.9376 1.20483 19.9576 1.2148 19.9917C1.5107 21.0984 1.88308 22.0669 2.40174 23.0613C2.55634 23.3267 3.46483 23.7735 3.34763 23.5147Z" fill="#B4D678"/>
<path d="M1.90828 18.4982C2.06205 18.5764 2.00802 18.5174 1.99805 18.336C1.97893 17.9507 1.96314 17.6828 1.97561 17.3758C2.02797 16.0478 2.11192 15.8223 2.28647 15.0501C2.30891 14.9494 2.43193 14.5833 2.21333 14.4718C1.76365 14.2397 1.22255 13.9343 1.02389 13.8494C0.9308 13.8103 0.824408 13.8752 0.811109 13.9759C0.728821 14.6224 0.683105 15.2806 0.683105 15.9504C0.683105 16.5678 0.723834 17.1761 0.793654 17.7718C0.794485 17.7818 0.796978 17.7893 0.801134 17.7976C0.934956 18.0531 1.57996 18.3277 1.90828 18.4982Z" fill="#B4D678"/>
<path d="M2.55325 12.6547C2.66463 12.6904 2.66463 12.6904 3.3753 11.5347C4.04108 10.4496 4.56722 9.91213 5.36267 9.10168C5.51977 8.94026 5.82648 8.60244 5.50065 8.43436C5.02853 8.19056 4.62873 7.98421 4.29875 7.81529L3.56979 7.43753C3.56979 7.43753 3.33457 7.29857 3.20573 7.45584C2.34462 8.77634 1.67718 10.235 1.24745 11.791C1.22085 11.8866 1.2649 11.989 1.35218 12.0331C1.48933 12.1046 1.66221 12.1945 1.87167 12.3019C2.0695 12.4042 2.29641 12.5207 2.55325 12.6547Z" fill="white"/>
<path d="M6.61941 7.08515C6.76487 7.13757 6.76487 7.13757 8.02744 6.27471C9.21023 5.46843 11.0255 4.59558 11.1303 4.52818C11.1353 4.52652 11.6664 4.24611 11.304 4.06305C10.8053 3.81093 9.28254 3.02545 8.62507 2.69512C8.43805 2.60109 8.21529 2.60858 8.03825 2.71841C6.72996 3.53302 5.55299 4.53567 4.54143 5.6881C4.44502 5.80043 4.4766 5.9735 4.60793 6.04173C5.10498 6.30383 6.18885 6.86632 6.61941 7.08515Z" fill="#B4D678"/>
<path d="M12.1227 3.21468C12.2914 3.30954 12.5782 3.29289 12.6888 3.26211C13.1725 3.1323 13.6471 2.97088 14.13 2.84024C15.0011 2.6031 15.6802 2.35265 16.5496 2.11467C16.6236 2.09637 16.8056 2.03563 16.7159 1.98487C16.6194 1.93495 15.1491 1.22102 14.2722 0.809146C13.9463 0.656876 13.5798 0.604455 13.2274 0.673518C12.0612 0.901506 10.9424 1.2618 9.88598 1.73608C9.75631 1.79349 9.75133 1.97905 9.87684 2.04312C10.5443 2.39009 12.0637 3.18223 12.1227 3.21468Z" fill="#8BA27E"/>
<path d="M29.6386 8.52837C29.6253 8.52338 29.5946 8.51339 29.5938 8.5525C29.5946 8.57746 29.6112 8.60242 29.6195 8.62323C29.6719 8.75386 29.7143 8.83291 29.7533 8.92777C29.8863 9.24728 30.0251 9.53435 30.1332 9.86635C30.4615 10.8765 30.4723 11.6886 30.4997 12.0364C30.5114 12.1762 30.5164 12.6347 30.6851 12.722C30.8314 12.7969 30.8804 12.8502 30.9453 12.8843C30.9818 12.9018 31.247 13.0407 31.4207 13.1164C31.4697 13.1372 31.5229 13.0807 31.5146 13.0399C31.2279 11.5222 30.7233 10.0835 30.031 8.75553C30.021 8.73805 30.0118 8.71475 29.9977 8.70144C29.9495 8.65568 29.8464 8.59743 29.6386 8.52837Z" fill="#B4D678"/>
<path d="M31.6127 14.5103C31.483 14.447 31.3259 14.3605 31.3018 14.348C31.2495 14.3205 30.8056 14.0909 30.6111 13.9902C30.602 13.9852 30.5828 13.9769 30.5604 13.9694C30.4183 13.8995 30.4257 15.2516 30.2155 16.1711C30.0176 17.0373 29.7317 17.7504 29.6768 17.8843C29.5455 18.2047 29.5372 18.2238 29.5106 18.3769C29.4981 18.4435 29.4026 18.8304 29.6644 18.9652C29.9586 19.1166 30.2213 19.2531 30.4474 19.3696C30.7142 19.5077 30.6601 19.4769 30.8114 19.5551C30.8521 19.5759 30.9918 19.6508 31.0907 19.7141C31.1821 19.7723 31.3301 19.7315 31.3459 19.6525C31.6559 18.4252 31.7922 17.2736 31.7922 15.9522C31.7922 15.5262 31.7723 15.1069 31.739 14.6908C31.734 14.6534 31.739 14.5718 31.6127 14.5103Z" fill="#8BA27E"/>
<path d="M19.8428 29.4565C19.6956 29.3816 19.5286 29.315 19.3673 29.3508C19.2767 29.3699 19.1886 29.4257 19.1063 29.4631C19.0116 29.5039 18.916 29.5463 18.8204 29.5863C18.4381 29.7485 18.0524 29.9049 17.6617 30.053C17.3833 30.1587 17.1456 30.2403 16.8621 30.336C16.7823 30.3618 16.6269 30.4158 16.6867 30.4433C16.9178 30.5623 17.1422 30.6771 17.3675 30.7944C17.3683 30.7961 17.3666 30.7978 17.3683 30.7978C17.7324 30.9883 18.0781 31.1647 18.443 31.3552C18.4505 31.3569 18.4605 31.3586 18.4671 31.3586C19.6017 31.1963 20.6956 30.9101 21.737 30.5149C21.7695 30.5032 21.7744 30.4616 21.7445 30.445C21.3987 30.2644 20.0996 29.5896 19.8428 29.4565Z" fill="#B4D678"/>
</svg>
